[
  {
    "name": "associate-module",
    "url": "https://gitlab.com/dilesoft-projects/pe-node-modules/associate-module",
    "branch": "create-pe-node-app"
  },
  {
    "name": "client-module",
    "url": "https://gitlab.com/dilesoft-projects/pe-node-modules/client-module",
    "branch": "create-pe-node-app"
  },
  {
    "name": "main-module",
    "url": "https://gitlab.com/dilesoft-projects/pe-node-modules/main-module",
    "branch": "create-pe-node-app"
  },
  {
    "name": "oauth-oid-module",
    "url": "https://gitlab.com/dilesoft-projects/pe-node-modules/oauth-oid-module",
    "branch": "create-pe-node-app"
  },
  {
    "name": "user-module",
    "url": "https://gitlab.com/dilesoft-projects/pe-node-modules/user-module",
    "branch": "create-pe-node-app"
  }
]